{
    "BossHP":
    {
        "DistributedSellbotBossAI": ["hitBossInsides", "__recordHit"],
        "DistributedCashbotBossAI": ["recordHit"],
        "DistributedLawbotBossAI": ["__recordHit"],
        "DistributedBossbotBossAI": ["__recordHit"]
    }
}
